[
    {
        "id": 1310767015,
        "apellido": "VELEZ LOOR",
        "nombre ": "SERGIO FABRICIO",
        "semestre": "5to",
        "paralelo": "B"
    },
    {
        "id": 1313364414,
        "apellido": "ANCHUNDIA TRIVIÑO",
        "nombre": "TOMY ARNOL",
        "semestre": "5to",
        "paralelo": "B"
    },
    {
        "id": 1719541193,
        "apellido": "BALCAZAR SOLIS",
        "nombre": "SADANA MARLID",
        "semestre": "5to",
        "paralelo": "B"
    },
    {
        "id": 1314680453,
        "apellido": "BAQUE LOPEZ",
        "nombre": "DANIEL ALEXANDER",
        "semestre": "5to",
        "paralelo": "B"
    },
    {
        "id": 1804571248,
        "apellido": "BAUTISTA SALAZAR",
        "nombre": "JOSE CARLOS",
        "semestre": "5to",
        "paralelo": "B"
    },
    {
        "id": 1316670338,
        "apellido": "BRAVO MERA",
        "nombre": "LEIVER NEPTALI",
        "semestre": "5to",
        "paralelo": "B"
    },
    {
        "id": 1317513123,
        "apellido": "CHAVEZ PAZ",
        "nombre": "JOSE BAUTISTA",
        "semestre": "5to",
        "paralelo": "B"
    },
    {
        "id": 1315257855,
        "apellido": "ERAS VELIZ",
        "nombre": "ELIANA ROMINA",
        "semestre": "5to",
        "paralelo": "B"
    },
    {
        "id": 1311927121,
        "apellido": "MACIAS MOSQUERA",
        "nombre": "ELIAN JOSHUE",
        "semestre": "5to",
        "paralelo": "B"
    },
    {
        "id": 1314821743,
        "apellido": "QUIJIJE LOPEZ",
        "nombre": "VERONICA MARILYN",
        "semestre": "5to",
        "paralelo": "B"
    }
]